%YAML 1.1
%TAG !u! tag:unity3d.com,2011:
--- !u!74 &7400000
AnimationClip:
  m_ObjectHideFlags: 0
  m_PrefabParentObject: {fileID: 0}
  m_PrefabInternal: {fileID: 0}
  m_Name: hover poli
  serializedVersion: 6
  m_Legacy: 0
  m_Compressed: 0
  m_UseHighQualityCurve: 1
  m_RotationCurves: []
  m_CompressedRotationCurves: []
  m_EulerCurves:
  - curve:
      serializedVersion: 2
      m_Curve:
      - serializedVersion: 2
        time: 0
        value: {x: 11.775001, y: 320.98, z: 0}
        inSlope: {x: -23.550001, y: -47.344055, z: 0}
        outSlope: {x: -23.550001, y: -47.344055, z: 0}
        tangentMode: 0
      - serializedVersion: 2
        time: 0.5
        value: {x: 0, y: 297.30798, z: 0}
        inSlope: {x: -11.775001, y: -79.819016, z: 0}
        outSlope: {x: -11.775001, y: -79.819016, z: 0}
        tangentMode: 0
      - serializedVersion: 2
        time: 1
        value: {x: 0, y: 241.161, z: 0}
        inSlope: {x: 0, y: -129.39697, z: 0}
        outSlope: {x: 0, y: -129.39697, z: 0}
        tangentMode: 0
      - serializedVersion: 2
        time: 1.5
        value: {x: 0, y: 167.91101, z: 0}
        inSlope: {x: 0, y: -104.020996, z: 0}
        outSlope: {x: 0, y: -104.020996, z: 0}
        tangentMode: 0
      - serializedVersion: 2
        time: 2
        value: {x: 0, y: 137.14, z: 0}
        inSlope: {x: 0, y: -81.714005, z: 0}
        outSlope: {x: 0, y: -81.714005, z: 0}
        tangentMode: 0
      - serializedVersion: 2
        time: 2.5
        value: {x: 0, y: 86.19701, z: 0}
        inSlope: {x: 0, y: -101.88599, z: 0}
        outSlope: {x: 0, y: -101.88599, z: 0}
        tangentMode: 0
      m_PreInfinity: 2
      m_PostInfinity: 2
      m_RotationOrder: 4
    path: 
  m_PositionCurves:
  - curve:
      serializedVersion: 2
      m_Curve:
      - serializedVersion: 2
        time: 0
        value: {x: 146.3, y: 71.7, z: 1277}
        inSlope: {x: 234.4, y: 0, z: 146.3999}
        outSlope: {x: 234.4, y: 0, z: 146.3999}
        tangentMode: 0
      - serializedVersion: 2
        time: 0.5
        value: {x: 263.5, y: 71.7, z: 1350.2}
        inSlope: {x: 111.8, y: 0, z: 219.30005}
        outSlope: {x: 111.8, y: 0, z: 219.30005}
        tangentMode: 0
      - serializedVersion: 2
        time: 1
        value: {x: 258.1, y: 71.7, z: 1496.3}
        inSlope: {x: -83.2, y: 0, z: 187.40002}
        outSlope: {x: -83.2, y: 0, z: 187.40002}
        tangentMode: 0
      - serializedVersion: 2
        time: 1.5
        value: {x: 180.3, y: 71.7, z: 1537.6}
        inSlope: {x: -157.3, y: 0, z: -36.400024}
        outSlope: {x: -157.3, y: 0, z: -36.400024}
        tangentMode: 0
      - serializedVersion: 2
        time: 2
        value: {x: 100.8, y: 71.7, z: 1459.9}
        inSlope: {x: -108.9, y: 0, z: -182.5}
        outSlope: {x: -108.9, y: 0, z: -182.5}
        tangentMode: 0
      - serializedVersion: 2
        time: 2.5
        value: {x: 71.4, y: 71.7, z: 1355.1}
        inSlope: {x: -58.800003, y: 0, z: -209.6001}
        outSlope: {x: -58.800003, y: 0, z: -209.6001}
        tangentMode: 0
      m_PreInfinity: 2
      m_PostInfinity: 2
      m_RotationOrder: 4
    path: 
  m_ScaleCurves: []
  m_FloatCurves: []
  m_PPtrCurves: []
  m_SampleRate: 60
  m_WrapMode: 0
  m_Bounds:
    m_Center: {x: 0, y: 0, z: 0}
    m_Extent: {x: 0, y: 0, z: 0}
  m_ClipBindingConstant:
    genericBindings:
    - path: 0
      attribute: 1
      script: {fileID: 0}
      classID: 4
      customType: 0
      isPPtrCurve: 0
    - path: 0
      attribute: 4
      script: {fileID: 0}
      classID: 4
      customType: 14
      isPPtrCurve: 0
    pptrCurveMapping: []
  m_AnimationClipSettings:
    serializedVersion: 2
    m_AdditiveReferencePoseClip: {fileID: 0}
    m_AdditiveReferencePoseTime: 0
    m_StartTime: 0
    m_StopTime: 2.5
    m_OrientationOffsetY: 0
    m_Level: 0
    m_CycleOffset: 0
    m_HasAdditiveReferencePose: 0
    m_LoopTime: 0
    m_LoopBlend: 0
    m_LoopBlendOrientation: 0
    m_LoopBlendPositionY: 0
    m_LoopBlendPositionXZ: 0
    m_KeepOriginalOrientation: 0
    m_KeepOriginalPositionY: 1
    m_KeepOriginalPositionXZ: 0
    m_HeightFromFeet: 0
    m_Mirror: 0
  m_EditorCurves:
  - curve:
      serializedVersion: 2
      m_Curve:
      - serializedVersion: 2
        time: 0
        value: 146.3
        inSlope: 234.4
        outSlope: 234.4
        tangentMode: 34
      - serializedVersion: 2
        time: 0.5
        value: 263.5
        inSlope: 111.8
        outSlope: 111.8
        tangentMode: 34
      - serializedVersion: 2
        time: 1
        value: 258.1
        inSlope: -83.2
        outSlope: -83.2
        tangentMode: 34
      - serializedVersion: 2
        time: 1.5
        value: 180.3
        inSlope: -157.3
        outSlope: -157.3
        tangentMode: 34
      - serializedVersion: 2
        time: 2
        value: 100.8
        inSlope: -108.9
        outSlope: -108.9
        tangentMode: 34
      - serializedVersion: 2
        time: 2.5
        value: 71.4
        inSlope: -58.800003
        outSlope: -58.800003
        tangentMode: 34
      m_PreInfinity: 2
      m_PostInfinity: 2
      m_RotationOrder: 4
    attribute: m_LocalPosition.x
    path: 
    classID: 4
    script: {fileID: 0}
  - curve:
      serializedVersion: 2
      m_Curve:
      - serializedVersion: 2
        time: 0
        value: 71.7
        inSlope: 0
        outSlope: 0
        tangentMode: 34
      - serializedVersion: 2
        time: 0.5
        value: 71.7
        inSlope: 0
        outSlope: 0
        tangentMode: 34
      - serializedVersion: 2
        time: 1
        value: 71.7
        inSlope: 0
        outSlope: 0
        tangentMode: 34
      - serializedVersion: 2
        time: 1.5
        value: 71.7
        inSlope: 0
        outSlope: 0
        tangentMode: 34
      - serializedVersion: 2
        time: 2
        value: 71.7
        inSlope: 0
        outSlope: 0
        tangentMode: 34
      - serializedVersion: 2
        time: 2.5
        value: 71.7
        inSlope: 0
        outSlope: 0
        tangentMode: 34
      m_PreInfinity: 2
      m_PostInfinity: 2
      m_RotationOrder: 4
    attribute: m_LocalPosition.y
    path: 
    classID: 4
    script: {fileID: 0}
  - curve:
      serializedVersion: 2
      m_Curve:
      - serializedVersion: 2
        time: 0
        value: 1277
        inSlope: 146.3999
        outSlope: 146.3999
        tangentMode: 34
      - serializedVersion: 2
        time: 0.5
        value: 1350.2
        inSlope: 219.30005
        outSlope: 219.30005
        tangentMode: 34
      - serializedVersion: 2
        time: 1
        value: 1496.3
        inSlope: 187.40002
        outSlope: 187.40002
        tangentMode: 34
      - serializedVersion: 2
        time: 1.5
        value: 1537.6
        inSlope: -36.400024
        outSlope: -36.400024
        tangentMode: 34
      - serializedVersion: 2
        time: 2
        value: 1459.9
        inSlope: -182.5
        outSlope: -182.5
        tangentMode: 34
      - serializedVersion: 2
        time: 2.5
        value: 1355.1
        inSlope: -209.6001
        outSlope: -209.6001
        tangentMode: 34
      m_PreInfinity: 2
      m_PostInfinity: 2
      m_RotationOrder: 4
    attribute: m_LocalPosition.z
    path: 
    classID: 4
    script: {fileID: 0}
  - curve:
      serializedVersion: 2
      m_Curve:
      - serializedVersion: 2
        time: 0
        value: 11.775001
        inSlope: -23.550001
        outSlope: -23.550001
        tangentMode: 34
      - serializedVersion: 2
        time: 0.5
        value: 0
        inSlope: -11.775001
        outSlope: -11.775001
        tangentMode: 34
      - serializedVersion: 2
        time: 1
        value: 0
        inSlope: 0
        outSlope: 0
        tangentMode: 34
      - serializedVersion: 2
        time: 1.5
        value: 0
        inSlope: 0
        outSlope: 0
        tangentMode: 34
      - serializedVersion: 2
        time: 2
        value: 0
        inSlope: 0
        outSlope: 0
        tangentMode: 34
      - serializedVersion: 2
        time: 2.5
        value: 0
        inSlope: 0
        outSlope: 0
        tangentMode: 34
      m_PreInfinity: 2
      m_PostInfinity: 2
      m_RotationOrder: 4
    attribute: localEulerAnglesRaw.x
    path: 
    classID: 4
    script: {fileID: 0}
  - curve:
      serializedVersion: 2
      m_Curve:
      - serializedVersion: 2
        time: 0
        value: 320.98
        inSlope: -47.344055
        outSlope: -47.344055
        tangentMode: 34
      - serializedVersion: 2
        time: 0.5
        value: 297.30798
        inSlope: -79.819016
        outSlope: -79.819016
        tangentMode: 34
      - serializedVersion: 2
        time: 1
        value: 241.161
        inSlope: -129.39697
        outSlope: -129.39697
        tangentMode: 34
      - serializedVersion: 2
        time: 1.5
        value: 167.91101
        inSlope: -104.020996
        outSlope: -104.020996
        tangentMode: 34
      - serializedVersion: 2
        time: 2
        value: 137.14
        inSlope: -81.714005
        outSlope: -81.714005
        tangentMode: 34
      - serializedVersion: 2
        time: 2.5
        value: 86.19701
        inSlope: -101.88599
        outSlope: -101.88599
        tangentMode: 34
      m_PreInfinity: 2
      m_PostInfinity: 2
      m_RotationOrder: 4
    attribute: localEulerAnglesRaw.y
    path: 
    classID: 4
    script: {fileID: 0}
  - curve:
      serializedVersion: 2
      m_Curve:
      - serializedVersion: 2
        time: 0
        value: 0
        inSlope: 0
        outSlope: 0
        tangentMode: 34
      - serializedVersion: 2
        time: 0.5
        value: 0
        inSlope: 0
        outSlope: 0
        tangentMode: 34
      - serializedVersion: 2
        time: 1
        value: 0
        inSlope: 0
        outSlope: 0
        tangentMode: 34
      - serializedVersion: 2
        time: 1.5
        value: 0
        inSlope: 0
        outSlope: 0
        tangentMode: 34
      - serializedVersion: 2
        time: 2
        value: 0
        inSlope: 0
        outSlope: 0
        tangentMode: 34
      - serializedVersion: 2
        time: 2.5
        value: 0
        inSlope: 0
        outSlope: 0
        tangentMode: 34
      m_PreInfinity: 2
      m_PostInfinity: 2
      m_RotationOrder: 4
    attribute: localEulerAnglesRaw.z
    path: 
    classID: 4
    script: {fileID: 0}
  m_EulerEditorCurves:
  - curve:
      serializedVersion: 2
      m_Curve: []
      m_PreInfinity: 2
      m_PostInfinity: 2
      m_RotationOrder: 4
    attribute: m_LocalEulerAngles.x
    path: 
    classID: 4
    script: {fileID: 0}
  - curve:
      serializedVersion: 2
      m_Curve: []
      m_PreInfinity: 2
      m_PostInfinity: 2
      m_RotationOrder: 4
    attribute: m_LocalEulerAngles.y
    path: 
    classID: 4
    script: {fileID: 0}
  - curve:
      serializedVersion: 2
      m_Curve: []
      m_PreInfinity: 2
      m_PostInfinity: 2
      m_RotationOrder: 4
    attribute: m_LocalEulerAngles.z
    path: 
    classID: 4
    script: {fileID: 0}
  m_HasGenericRootTransform: 1
  m_HasMotionFloatCurves: 0
  m_GenerateMotionCurves: 0
  m_IsEmpty: 0
  m_Events:
  - time: 2.5
    functionName: SairAnim
    data: 
    objectReferenceParameter: {fileID: 0}
    floatParameter: 0
    intParameter: 0
    messageOptions: 0
